…
- 이 패키지를 이용하면 보다 쉽게 `kaggle` 데이터를 불러올 수 있다. 

### (2) 데이터 불러오기 
- 이제 `titanic` 데이터를 불러오자
  + 처음 `kaggle` 대회에 참여하는 사람들은 우선 `Join Competiton` 버튼을 클릭한다. 
    * 참고: [Google Colab with Kaggle - Beginner](https://chloevan.github.io/settings/kaggle_with_colab_beginner/)
- 소스코드로 확인해본다. 

```r
pin_find("titanic", board="kaggle")
```

```
## # A tibble: 21 x 4
##    name                               description                    type  board
##    <chr>                              <chr>                          <chr> <chr>
##  1 abhinavralhan/titanic              titanic                        files kagg…
##  2 azeembootwala/titanic              Titanic                        files kagg…
##  3 broaniki/titanic                   titanic                        files kagg…
##  4 c/titanic                          Titanic: Machine Learning fro… files kagg…
##  5 carlmcbrideellis/titanic-all-zero… Titanic all zeros csv file     files kagg…
##  6 cities/titanic123                  Titanic Dataset Analysis       files kagg…
##  7 davorbudimir/titanic               Titanic                        files kagg…
##  8 dushyantkhinchi/titanic-survival   Titanic survival               files kagg…
##  9 fossouodonald/titaniccsv           Titanic csv                    files kagg…
## 10 harunshimanto/titanic-solution-a-… Titanic Solution: A Beginner'… files kagg…
## # … with 11 more rows
```
…
